{
  "$schema": "https://unpkg.com/@changesets/config@3.0.0/schema.json",
  "changelog": "@changesets/cli/changelog",
  "commit": false,
  "fixed": [],
  "linked": [],
  "access": "public",
  "baseBranch": "main",
  "privatePackages": {
    "version": true,
    "tag": true
  },
  "updateInternalDependencies": "patch",
  "ignore": []
}
